<?xml version="1.0" encoding="UTF-8"?>
<!DOCTYPE svg PUBLIC "-//W3C//DTD SVG 1.1//EN" "http://www.w3.org/Graphics/SVG/1.1/DTD/svg11.dtd">
<!-- Creator: CorelDRAW X7 -->
<svg xmlns="http://www.w3.org/2000/svg" xml:space="preserve" width="145.143mm" height="145.143mm" version="1.1" style="shape-rendering:geometricPrecision; text-rendering:geometricPrecision; image-rendering:optimizeQuality; fill-rule:evenodd; clip-rule:evenodd"
viewBox="0 0 14514 14514"
 xmlns:xlink="http://www.w3.org/1999/xlink">
 <defs>
  <style type="text/css">
   <![CDATA[
    .fil0 {fill:#4AA4C8}
    .fil5 {fill:#4AC88B}
    .fil7 {fill:#4CA8CD}
    .fil1 {fill:#4EAED4}
    .fil6 {fill:#4FAFD4}
    .fil3 {fill:#4FD496}
    .fil2 {fill:#F3F3F3}
    .fil4 {fill:#FEFEFE}
   ]]>
  </style>
 </defs>
 <g id="Camada_x0020_1">
  <metadata id="CorelCorpID_0Corel-Layer"/>
  <path class="fil0" d="M8309 12003c-211,-113 -416,-624 -544,-842 -557,-944 -530,-2692 -735,-3873 -102,-41 -127,-213 -293,-410 -343,-408 -851,-648 -1202,-943 -475,-400 -1074,-983 -1269,-1584 -231,-717 -67,-1620 716,-1958 386,-167 795,-160 1186,-13 153,58 329,150 467,238 140,89 350,285 413,285l-8 -11c95,-456 193,-993 40,-1552 -289,9 -658,59 -919,66 -523,-516 -1334,-639 -1956,-233 -70,46 -190,117 -158,212 85,28 148,7 255,50 308,125 379,186 598,399 24,23 -247,186 -295,224 -835,662 -1058,1406 -1143,2471 -44,703 0,2830 138,3722 237,3294 2887,4096 4709,3752z"/>
  <path class="fil1" d="M9813 4214c-11,80 -59,228 -101,294 -122,472 -1118,1429 -1617,1731 -227,137 -569,388 -750,580 -98,104 -181,329 -259,400 -18,43 -16,40 -56,69 -29,1128 3,2971 560,3916 128,218 496,688 707,802 266,-39 484,-112 758,-199 -85,-80 -82,-584 -274,-783 -418,-436 -535,-459 -631,-1051 -77,-476 -85,-930 22,-1402 77,-344 258,-747 515,-995 58,-91 443,-168 544,-217 454,-224 565,-450 1031,-262 108,44 202,2 168,134 -96,36 -405,-175 -734,33 -185,117 -504,278 -588,479 -625,1289 488,4306 2186,3283l14 5c39,-77 83,-157 109,-237 21,-64 65,-251 29,-300 -54,43 -130,88 -176,123 -299,233 -518,-45 -488,-311 -6,-137 30,-410 12,-616 -16,-560 30,-1916 -175,-2346 -45,-95 -2,-476 -4,-605 -7,-709 -11,-1455 -42,-2173 -49,-718 -195,-1633 -725,-2157 -211,-208 -537,-492 -820,-609 -474,614 229,674 585,1039 124,181 198,393 234,609 28,171 44,620 -34,766z"/>
  <path class="fil2" d="M7030 7288c40,-29 38,-26 56,-69 -41,-83 -51,-228 -27,-314l73 9c-51,-2 -37,5 -76,-22 35,-1307 479,-2456 -8,-3989 -63,0 -273,-196 -413,-285 -138,-88 -314,-180 -467,-238 -391,-147 -800,-154 -1186,13 -783,338 -947,1241 -716,1958 195,601 794,1184 1269,1584 351,295 859,535 1202,943 166,197 191,369 293,410z"/>
  <path class="fil3" d="M8414 7376c-123,224 -150,246 -184,331 -197,298 -334,1343 -283,1720 133,1134 667,2036 1785,2526 256,132 376,33 682,58 32,28 200,-112 312,-61 1084,-432 1056,-1773 907,-1398 -972,1669 -3142,-94 -2382,-2616 84,-202 248,-392 433,-509 329,-207 826,-58 922,-94 -38,-104 -204,-246 -320,-293 -465,-188 -1006,-195 -1460,28 -101,50 -355,217 -412,308z"/>
  <path class="fil4" d="M7040 2892l8 11c2,1457 -32,2935 -18,4385 78,-70 217,-365 315,-469 181,-192 523,-443 750,-580 499,-302 1409,-1080 1531,-1551 -86,65 -59,-4 -173,71 -347,229 -835,600 -1288,374 2597,-1497 1745,-2047 -719,-2532 -57,25 -159,99 -209,137 -48,36 -155,134 -197,154z"/>
  <path class="fil3" d="M8430 1020c-158,106 -334,207 -389,315 -333,329 -500,549 -392,1096 22,423 134,725 457,980 62,49 537,138 515,161 170,82 200,265 178,451 -62,507 -898,779 -996,930 184,188 252,238 673,193 164,-18 387,-114 537,-175 274,-111 422,-53 600,-265 457,-546 547,-1317 0,-1867 -367,-401 -937,-436 -600,-981 487,-506 551,-386 998,-501 28,-85 -29,-114 -88,-157 -388,-287 -814,-370 -1288,-250 -71,19 -139,53 -205,70z"/>
  <path class="fil5" d="M9055 11807c176,145 542,236 767,267 156,22 343,14 499,-8 104,-15 398,-81 638,-234 -683,230 -1634,345 -2533,-1084 -238,-461 -364,-1066 -392,-1589 -82,-944 151,-1396 380,-1783 -257,248 -440,703 -518,1047 -106,472 -104,960 -27,1436 96,592 334,1166 752,1602 192,199 349,266 434,346z"/>
  <path class="fil1" d="M7040 2892c42,-20 149,-118 197,-154 50,-38 168,-121 225,-146 122,-168 44,-236 64,-357 18,-117 56,-170 87,-283 82,-248 167,-325 256,-538 -237,-72 -591,-71 -847,-75 19,511 27,1059 18,1553z"/>
  <path class="fil5" d="M7559 1910c-30,113 -55,212 -74,329 -118,734 231,1255 844,1362 117,-12 160,-36 292,-29 0,-16 -147,-81 -217,-125 -272,-129 -690,-414 -711,-1001 -28,-522 65,-770 348,-1111 138,-152 268,-239 389,-315 -348,160 -767,506 -871,890z"/>
  <path class="fil6" d="M8065 3800c-196,248 -365,897 -261,1159l-1 -6c98,-151 934,-423 996,-930 22,-186 -8,-369 -178,-451 -208,-11 -425,61 -556,228z"/>
  <path class="fil6" d="M6307 4906c85,-209 -47,-776 -162,-980 -216,-381 -621,-451 -751,-304 -92,102 -101,351 -59,476 36,105 163,280 247,349 96,80 637,446 725,459z"/>
  <path class="fil5" d="M7803 4953l0 0c201,521 1127,283 1459,64 236,-129 448,-423 499,-530 -362,417 -1556,855 -1958,466z"/>
  <path class="fil0" d="M11446 10494l-176 101c-312,191 -457,-50 -488,-289 -89,46 -134,141 -416,134 -142,-4 -260,-99 -402,-128 140,165 377,545 849,537 3,0 6,0 9,0 318,-50 448,-101 624,-355z"/>
  <path class="fil0" d="M3346 5603c51,25 13,17 44,0 -47,-27 -11,-20 -44,0z"/>
  <path class="fil7" d="M3535 6035l-41 0c17,26 41,49 41,0z"/>
 </g>
</svg>
